{
  "extensionDescription": {
    "message": "You can open URLs that are not linked with double click",
    "description": "Description of the extension."
  },
  "options": {
    "message": "Options"
  },
  "tabs": {
    "message": "Tabs"
  },
  "background": {
    "message": "Open tab in background",
    "description": "open tab in background"
  },
  "clicks": {
    "message": "Clicks"
  },
  "double": {
    "message": "Double"
  },
  "tripple": {
    "message": "Tripple"
  }
}
